-- Merging decision tree log ---
application
INJECTED from D:\HOMEWORK\3_junior\TERM 1\Projects\flutter-layout-starter\android\app\src\main\AndroidManifest.xml:8:5-46:19
MERGED from [androidx.window:window:1.0.0-beta04] C:\Users\AsusTuf\.gradle\caches\transforms-3\246cb09146038ebf57e694ce2e251f1e\transformed\jetified-window-1.0.0-beta04\AndroidManifest.xml:24:5-31:19
MERGED from [androidx.window:window:1.0.0-beta04] C:\Users\AsusTuf\.gradle\caches\transforms-3\246cb09146038ebf57e694ce2e251f1e\transformed\jetified-window-1.0.0-beta04\AndroidManifest.xml:24:5-31:19
MERGED from [androidx.core:core:1.6.0] C:\Users\AsusTuf\.gradle\caches\transforms-3\e155c61d323716fdbbb86e24ad5de25c\transformed\core-1.6.0\AndroidManifest.xml:24:5-89
MERGED from [androidx.core:core:1.6.0] C:\Users\AsusTuf\.gradle\caches\transforms-3\e155c61d323716fdbbb86e24ad5de25c\transformed\core-1.6.0\AndroidManifest.xml:24:5-89
MERGED from [androidx.versionedparcelable:versionedparcelable:1.1.1] C:\Users\AsusTuf\.gradle\caches\transforms-3\b158df99180e3ce5dae71aee58cc7ba0\transformed\versionedparcelable-1.1.1\AndroidManifest.xml:24:5-25:19
MERGED from [androidx.versionedparcelable:versionedparcelable:1.1.1] C:\Users\AsusTuf\.gradle\caches\transforms-3\b158df99180e3ce5dae71aee58cc7ba0\transformed\versionedparcelable-1.1.1\AndroidManifest.xml:24:5-25:19
	android:appComponentFactory
		ADDED from [androidx.core:core:1.6.0] C:\Users\AsusTuf\.gradle\caches\transforms-3\e155c61d323716fdbbb86e24ad5de25c\transformed\core-1.6.0\AndroidManifest.xml:24:18-86
	android:name
		INJECTED from D:\HOMEWORK\3_junior\TERM 1\Projects\flutter-layout-starter\android\app\src\main\AndroidManifest.xml
manifest
ADDED from D:\HOMEWORK\3_junior\TERM 1\Projects\flutter-layout-starter\android\app\src\main\AndroidManifest.xml:1:1-47:12
INJECTED from D:\HOMEWORK\3_junior\TERM 1\Projects\flutter-layout-starter\android\app\src\main\AndroidManifest.xml:1:1-47:12
INJECTED from D:\HOMEWORK\3_junior\TERM 1\Projects\flutter-layout-starter\android\app\src\main\AndroidManifest.xml:1:1-47:12
INJECTED from D:\HOMEWORK\3_junior\TERM 1\Projects\flutter-layout-starter\android\app\src\main\AndroidManifest.xml:1:1-47:12
MERGED from D:\HOMEWORK\3_junior\TERM 1\Projects\flutter-layout-starter\android\app\src\main\AndroidManifest.xml:1:1-47:12
MERGED from [:fluttertoast] D:\HOMEWORK\3_junior\TERM 1\Projects\flutter-layout-starter\build\fluttertoast\intermediates\merged_manifest\debug\AndroidManifest.xml:2:1-9:12
MERGED from [androidx.window:window-java:1.0.0-beta04] C:\Users\AsusTuf\.gradle\caches\transforms-3\0047ea9aa65e9457b8952cdd5966dd9a\transformed\jetified-window-java-1.0.0-beta04\AndroidManifest.xml:17:1-23:12
MERGED from [androidx.window:window:1.0.0-beta04] C:\Users\AsusTuf\.gradle\caches\transforms-3\246cb09146038ebf57e694ce2e251f1e\transformed\jetified-window-1.0.0-beta04\AndroidManifest.xml:17:1-33:12
MERGED from [androidx.fragment:fragment:1.1.0] C:\Users\AsusTuf\.gradle\caches\transforms-3\792e2d56b38976577d8b8f3868c468b3\transformed\fragment-1.1.0\AndroidManifest.xml:17:1-24:12
MERGED from [androidx.viewpager:viewpager:1.0.0] C:\Users\AsusTuf\.gradle\caches\transforms-3\a0a1560687340cf38e871108aca62a7a\transformed\viewpager-1.0.0\AndroidManifest.xml:17:1-22:12
MERGED from [androidx.loader:loader:1.0.0] C:\Users\AsusTuf\.gradle\caches\transforms-3\64fa9cdb7a18b867946ac60a1b61ee02\transformed\loader-1.0.0\AndroidManifest.xml:17:1-22:12
MERGED from [androidx.activity:activity:1.0.0] C:\Users\AsusTuf\.gradle\caches\transforms-3\c18ea24ce92065f64961b692980a97d3\transformed\jetified-activity-1.0.0\AndroidManifest.xml:17:1-24:12
MERGED from [androidx.customview:customview:1.0.0] C:\Users\AsusTuf\.gradle\caches\transforms-3\32a9f64de0b1023b2f89000b1e7c7c19\transformed\customview-1.0.0\AndroidManifest.xml:17:1-22:12
MERGED from [androidx.core:core:1.6.0] C:\Users\AsusTuf\.gradle\caches\transforms-3\e155c61d323716fdbbb86e24ad5de25c\transformed\core-1.6.0\AndroidManifest.xml:17:1-26:12
MERGED from [androidx.lifecycle:lifecycle-runtime:2.2.0] C:\Users\AsusTuf\.gradle\caches\transforms-3\b23c2ce68d05255a32007c8a61b324d5\transformed\lifecycle-runtime-2.2.0\AndroidManifest.xml:17:1-24:12
MERGED from [androidx.savedstate:savedstate:1.0.0] C:\Users\AsusTuf\.gradle\caches\transforms-3\71ee11688fa8afaea403a63e50a138a5\transformed\jetified-savedstate-1.0.0\AndroidManifest.xml:17:1-24:12
MERGED from [androidx.lifecycle:lifecycle-livedata:2.0.0] C:\Users\AsusTuf\.gradle\caches\transforms-3\a43ec200e27e459864d6f14e1a8d9e46\transformed\lifecycle-livedata-2.0.0\AndroidManifest.xml:17:1-22:12
MERGED from [androidx.lifecycle:lifecycle-livedata-core:2.0.0] C:\Users\AsusTuf\.gradle\caches\transforms-3\eaba8c60a3d4a42a35bbbc9cd4b7e5d5\transformed\lifecycle-livedata-core-2.0.0\AndroidManifest.xml:17:1-22:12
MERGED from [androidx.tracing:tracing:1.0.0] C:\Users\AsusTuf\.gradle\caches\transforms-3\af54b168ae69d080d5bc0450796df6be\transformed\jetified-tracing-1.0.0\AndroidManifest.xml:17:1-24:12
MERGED from [androidx.arch.core:core-runtime:2.0.0] C:\Users\AsusTuf\.gradle\caches\transforms-3\e43220a00c403b7dbb25d866eed50553\transformed\core-runtime-2.0.0\AndroidManifest.xml:17:1-22:12
MERGED from [androidx.versionedparcelable:versionedparcelable:1.1.1] C:\Users\AsusTuf\.gradle\caches\transforms-3\b158df99180e3ce5dae71aee58cc7ba0\transformed\versionedparcelable-1.1.1\AndroidManifest.xml:17:1-27:12
MERGED from [androidx.lifecycle:lifecycle-viewmodel:2.1.0] C:\Users\AsusTuf\.gradle\caches\transforms-3\18cfe5f97797f97818d608d2440aef33\transformed\lifecycle-viewmodel-2.1.0\AndroidManifest.xml:17:1-22:12
MERGED from [androidx.annotation:annotation-experimental:1.1.0] C:\Users\AsusTuf\.gradle\caches\transforms-3\cb8eb0939b244d52ebf3ffc59167196f\transformed\jetified-annotation-experimental-1.1.0\AndroidManifest.xml:17:1-24:12
INJECTED from D:\HOMEWORK\3_junior\TERM 1\Projects\flutter-layout-starter\android\app\src\debug\AndroidManifest.xml:1:1-7:12
INJECTED from D:\HOMEWORK\3_junior\TERM 1\Projects\flutter-layout-starter\android\app\src\debug\AndroidManifest.xml:1:1-7:12
INJECTED from D:\HOMEWORK\3_junior\TERM 1\Projects\flutter-layout-starter\android\app\src\debug\AndroidManifest.xml:1:1-7:12
	package
		ADDED from D:\HOMEWORK\3_junior\TERM 1\Projects\flutter-layout-starter\android\app\src\main\AndroidManifest.xml:2:5-37
		INJECTED from D:\HOMEWORK\3_junior\TERM 1\Projects\flutter-layout-starter\android\app\src\main\AndroidManifest.xml
		INJECTED from D:\HOMEWORK\3_junior\TERM 1\Projects\flutter-layout-starter\android\app\src\debug\AndroidManifest.xml
	android:versionName
		INJECTED from D:\HOMEWORK\3_junior\TERM 1\Projects\flutter-layout-starter\android\app\src\main\AndroidManifest.xml
		ADDED from D:\HOMEWORK\3_junior\TERM 1\Projects\flutter-layout-starter\android\app\src\main\AndroidManifest.xml:1:1-47:12
		INJECTED from D:\HOMEWORK\3_junior\TERM 1\Projects\flutter-layout-starter\android\app\src\debug\AndroidManifest.xml
	android:versionCode
		INJECTED from D:\HOMEWORK\3_junior\TERM 1\Projects\flutter-layout-starter\android\app\src\main\AndroidManifest.xml
		ADDED from D:\HOMEWORK\3_junior\TERM 1\Projects\flutter-layout-starter\android\app\src\main\AndroidManifest.xml:1:1-47:12
		INJECTED from D:\HOMEWORK\3_junior\TERM 1\Projects\flutter-layout-starter\android\app\src\debug\AndroidManifest.xml
	xmlns:android
		ADDED from D:\HOMEWORK\3_junior\TERM 1\Projects\flutter-layout-starter\android\app\src\main\AndroidManifest.xml:1:11-69
uses-sdk
INJECTED from D:\HOMEWORK\3_junior\TERM 1\Projects\flutter-layout-starter\android\app\src\main\AndroidManifest.xml reason: use-sdk injection requested
INJECTED from D:\HOMEWORK\3_junior\TERM 1\Projects\flutter-layout-starter\android\app\src\main\AndroidManifest.xml
INJECTED from D:\HOMEWORK\3_junior\TERM 1\Projects\flutter-layout-starter\android\app\src\main\AndroidManifest.xml
MERGED from [:fluttertoast] D:\HOMEWORK\3_junior\TERM 1\Projects\flutter-layout-starter\build\fluttertoast\intermediates\merged_manifest\debug\AndroidManifest.xml:5:5-7:41
MERGED from [:fluttertoast] D:\HOMEWORK\3_junior\TERM 1\Projects\flutter-layout-starter\build\fluttertoast\intermediates\merged_manifest\debug\AndroidManifest.xml:5:5-7:41
MERGED from [androidx.window:window-java:1.0.0-beta04] C:\Users\AsusTuf\.gradle\caches\transforms-3\0047ea9aa65e9457b8952cdd5966dd9a\transformed\jetified-window-java-1.0.0-beta04\AndroidManifest.xml:19:5-21:41
MERGED from [androidx.window:window-java:1.0.0-beta04] C:\Users\AsusTuf\.gradle\caches\transforms-3\0047ea9aa65e9457b8952cdd5966dd9a\transformed\jetified-window-java-1.0.0-beta04\AndroidManifest.xml:19:5-21:41
MERGED from [androidx.window:window:1.0.0-beta04] C:\Users\AsusTuf\.gradle\caches\transforms-3\246cb09146038ebf57e694ce2e251f1e\transformed\jetified-window-1.0.0-beta04\AndroidManifest.xml:20:5-22:41
MERGED from [androidx.window:window:1.0.0-beta04] C:\Users\AsusTuf\.gradle\caches\transforms-3\246cb09146038ebf57e694ce2e251f1e\transformed\jetified-window-1.0.0-beta04\AndroidManifest.xml:20:5-22:41
MERGED from [androidx.fragment:fragment:1.1.0] C:\Users\AsusTuf\.gradle\caches\transforms-3\792e2d56b38976577d8b8f3868c468b3\transformed\fragment-1.1.0\AndroidManifest.xml:20:5-22:41
MERGED from [androidx.fragment:fragment:1.1.0] C:\Users\AsusTuf\.gradle\caches\transforms-3\792e2d56b38976577d8b8f3868c468b3\transformed\fragment-1.1.0\AndroidManifest.xml:20:5-22:41
MERGED from [androidx.viewpager:viewpager:1.0.0] C:\Users\AsusTuf\.gradle\caches\transforms-3\a0a1560687340cf38e871108aca62a7a\transformed\viewpager-1.0.0\AndroidManifest.xml:20:5-44
MERGED from [androidx.viewpager:viewpager:1.0.0] C:\Users\AsusTuf\.gradle\caches\transforms-3\a0a1560687340cf38e871108aca62a7a\transformed\viewpager-1.0.0\AndroidManifest.xml:20:5-44
MERGED from [androidx.loader:loader:1.0.0] C:\Users\AsusTuf\.gradle\caches\transforms-3\64fa9cdb7a18b867946ac60a1b61ee02\transformed\loader-1.0.0\AndroidManifest.xml:20:5-44
MERGED from [androidx.loader:loader:1.0.0] C:\Users\AsusTuf\.gradle\caches\transforms-3\64fa9cdb7a18b867946ac60a1b61ee02\transformed\loader-1.0.0\AndroidManifest.xml:20:5-44
MERGED from [androidx.activity:activity:1.0.0] C:\Users\AsusTuf\.gradle\caches\transforms-3\c18ea24ce92065f64961b692980a97d3\transformed\jetified-activity-1.0.0\AndroidManifest.xml:20:5-22:41
MERGED from [androidx.activity:activity:1.0.0] C:\Users\AsusTuf\.gradle\caches\transforms-3\c18ea24ce92065f64961b692980a97d3\transformed\jetified-activity-1.0.0\AndroidManifest.xml:20:5-22:41
MERGED from [androidx.customview:customview:1.0.0] C:\Users\AsusTuf\.gradle\caches\transforms-3\32a9f64de0b1023b2f89000b1e7c7c19\transformed\customview-1.0.0\AndroidManifest.xml:20:5-44
MERGED from [androidx.customview:customview:1.0.0] C:\Users\AsusTuf\.gradle\caches\transforms-3\32a9f64de0b1023b2f89000b1e7c7c19\transformed\customview-1.0.0\AndroidManifest.xml:20:5-44
MERGED from [androidx.core:core:1.6.0] C:\Users\AsusTuf\.gradle\caches\transforms-3\e155c61d323716fdbbb86e24ad5de25c\transformed\core-1.6.0\AndroidManifest.xml:20:5-22:41
MERGED from [androidx.core:core:1.6.0] C:\Users\AsusTuf\.gradle\caches\transforms-3\e155c61d323716fdbbb86e24ad5de25c\transformed\core-1.6.0\AndroidManifest.xml:20:5-22:41
MERGED from [androidx.lifecycle:lifecycle-runtime:2.2.0] C:\Users\AsusTuf\.gradle\caches\transforms-3\b23c2ce68d05255a32007c8a61b324d5\transformed\lifecycle-runtime-2.2.0\AndroidManifest.xml:20:5-22:41
MERGED from [androidx.lifecycle:lifecycle-runtime:2.2.0] C:\Users\AsusTuf\.gradle\caches\transforms-3\b23c2ce68d05255a32007c8a61b324d5\transformed\lifecycle-runtime-2.2.0\AndroidManifest.xml:20:5-22:41
MERGED from [androidx.savedstate:savedstate:1.0.0] C:\Users\AsusTuf\.gradle\caches\transforms-3\71ee11688fa8afaea403a63e50a138a5\transformed\jetified-savedstate-1.0.0\AndroidManifest.xml:20:5-22:41
MERGED from [androidx.savedstate:savedstate:1.0.0] C:\Users\AsusTuf\.gradle\caches\transforms-3\71ee11688fa8afaea403a63e50a138a5\transformed\jetified-savedstate-1.0.0\AndroidManifest.xml:20:5-22:41
MERGED from [androidx.lifecycle:lifecycle-livedata:2.0.0] C:\Users\AsusTuf\.gradle\caches\transforms-3\a43ec200e27e459864d6f14e1a8d9e46\transformed\lifecycle-livedata-2.0.0\AndroidManifest.xml:20:5-44
MERGED from [androidx.lifecycle:lifecycle-livedata:2.0.0] C:\Users\AsusTuf\.gradle\caches\transforms-3\a43ec200e27e459864d6f14e1a8d9e46\transformed\lifecycle-livedata-2.0.0\AndroidManifest.xml:20:5-44
MERGED from [androidx.lifecycle:lifecycle-livedata-core:2.0.0] C:\Users\AsusTuf\.gradle\caches\transforms-3\eaba8c60a3d4a42a35bbbc9cd4b7e5d5\transformed\lifecycle-livedata-core-2.0.0\AndroidManifest.xml:20:5-44
MERGED from [androidx.lifecycle:lifecycle-livedata-core:2.0.0] C:\Users\AsusTuf\.gradle\caches\transforms-3\eaba8c60a3d4a42a35bbbc9cd4b7e5d5\transformed\lifecycle-livedata-core-2.0.0\AndroidManifest.xml:20:5-44
MERGED from [androidx.tracing:tracing:1.0.0] C:\Users\AsusTuf\.gradle\caches\transforms-3\af54b168ae69d080d5bc0450796df6be\transformed\jetified-tracing-1.0.0\AndroidManifest.xml:20:5-22:41
MERGED from [androidx.tracing:tracing:1.0.0] C:\Users\AsusTuf\.gradle\caches\transforms-3\af54b168ae69d080d5bc0450796df6be\transformed\jetified-tracing-1.0.0\AndroidManifest.xml:20:5-22:41
MERGED from [androidx.arch.core:core-runtime:2.0.0] C:\Users\AsusTuf\.gradle\caches\transforms-3\e43220a00c403b7dbb25d866eed50553\transformed\core-runtime-2.0.0\AndroidManifest.xml:20:5-44
MERGED from [androidx.arch.core:core-runtime:2.0.0] C:\Users\AsusTuf\.gradle\caches\transforms-3\e43220a00c403b7dbb25d866eed50553\transformed\core-runtime-2.0.0\AndroidManifest.xml:20:5-44
MERGED from [androidx.versionedparcelable:versionedparcelable:1.1.1] C:\Users\AsusTuf\.gradle\caches\transforms-3\b158df99180e3ce5dae71aee58cc7ba0\transformed\versionedparcelable-1.1.1\AndroidManifest.xml:20:5-22:41
MERGED from [androidx.versionedparcelable:versionedparcelable:1.1.1] C:\Users\AsusTuf\.gradle\caches\transforms-3\b158df99180e3ce5dae71aee58cc7ba0\transformed\versionedparcelable-1.1.1\AndroidManifest.xml:20:5-22:41
MERGED from [androidx.lifecycle:lifecycle-viewmodel:2.1.0] C:\Users\AsusTuf\.gradle\caches\transforms-3\18cfe5f97797f97818d608d2440aef33\transformed\lifecycle-viewmodel-2.1.0\AndroidManifest.xml:20:5-44
MERGED from [androidx.lifecycle:lifecycle-viewmodel:2.1.0] C:\Users\AsusTuf\.gradle\caches\transforms-3\18cfe5f97797f97818d608d2440aef33\transformed\lifecycle-viewmodel-2.1.0\AndroidManifest.xml:20:5-44
MERGED from [androidx.annotation:annotation-experimental:1.1.0] C:\Users\AsusTuf\.gradle\caches\transforms-3\cb8eb0939b244d52ebf3ffc59167196f\transformed\jetified-annotation-experimental-1.1.0\AndroidManifest.xml:20:5-22:41
MERGED from [androidx.annotation:annotation-experimental:1.1.0] C:\Users\AsusTuf\.gradle\caches\transforms-3\cb8eb0939b244d52ebf3ffc59167196f\transformed\jetified-annotation-experimental-1.1.0\AndroidManifest.xml:20:5-22:41
INJECTED from D:\HOMEWORK\3_junior\TERM 1\Projects\flutter-layout-starter\android\app\src\debug\AndroidManifest.xml
INJECTED from D:\HOMEWORK\3_junior\TERM 1\Projects\flutter-layout-starter\android\app\src\debug\AndroidManifest.xml
	android:targetSdkVersion
		INJECTED from D:\HOMEWORK\3_junior\TERM 1\Projects\flutter-layout-starter\android\app\src\main\AndroidManifest.xml
		INJECTED from D:\HOMEWORK\3_junior\TERM 1\Projects\flutter-layout-starter\android\app\src\debug\AndroidManifest.xml
	android:minSdkVersion
		INJECTED from D:\HOMEWORK\3_junior\TERM 1\Projects\flutter-layout-starter\android\app\src\main\AndroidManifest.xml
		INJECTED from D:\HOMEWORK\3_junior\TERM 1\Projects\flutter-layout-starter\android\app\src\debug\AndroidManifest.xml
uses-permission#android.permission.INTERNET
ADDED from D:\HOMEWORK\3_junior\TERM 1\Projects\flutter-layout-starter\android\app\src\debug\AndroidManifest.xml:6:5-66
	android:name
		ADDED from D:\HOMEWORK\3_junior\TERM 1\Projects\flutter-layout-starter\android\app\src\debug\AndroidManifest.xml:6:22-64
uses-library#androidx.window.extensions
ADDED from [androidx.window:window:1.0.0-beta04] C:\Users\AsusTuf\.gradle\caches\transforms-3\246cb09146038ebf57e694ce2e251f1e\transformed\jetified-window-1.0.0-beta04\AndroidManifest.xml:25:9-27:40
	android:required
		ADDED from [androidx.window:window:1.0.0-beta04] C:\Users\AsusTuf\.gradle\caches\transforms-3\246cb09146038ebf57e694ce2e251f1e\transformed\jetified-window-1.0.0-beta04\AndroidManifest.xml:27:13-37
	android:name
		ADDED from [androidx.window:window:1.0.0-beta04] C:\Users\AsusTuf\.gradle\caches\transforms-3\246cb09146038ebf57e694ce2e251f1e\transformed\jetified-window-1.0.0-beta04\AndroidManifest.xml:26:13-54
uses-library#androidx.window.sidecar
ADDED from [androidx.window:window:1.0.0-beta04] C:\Users\AsusTuf\.gradle\caches\transforms-3\246cb09146038ebf57e694ce2e251f1e\transformed\jetified-window-1.0.0-beta04\AndroidManifest.xml:28:9-30:40
	android:required
		ADDED from [androidx.window:window:1.0.0-beta04] C:\Users\AsusTuf\.gradle\caches\transforms-3\246cb09146038ebf57e694ce2e251f1e\transformed\jetified-window-1.0.0-beta04\AndroidManifest.xml:30:13-37
	android:name
		ADDED from [androidx.window:window:1.0.0-beta04] C:\Users\AsusTuf\.gradle\caches\transforms-3\246cb09146038ebf57e694ce2e251f1e\transformed\jetified-window-1.0.0-beta04\AndroidManifest.xml:29:13-51
